…
``` r
# Participants appear only in the amyloid dataset but not in the baseline dataset 
subset(amyloid, !(study_id %in% baseline_original$id))
```

    ## # A tibble: 48 × 4
    ##    study_id baseline    time  amyloid    
    ##       <dbl> <chr>       <chr> <chr>      
    ##  1      484 0.11139422  2     0.110936838
    ##  2      484 0.11139422  4     0.109182887
    ##  3      484 0.11139422  6     0.110607585
    ##  4      484 0.11139422  8     0.107057538
    ##  5      485 0.106042813 2     0.105158363
    ##  6      485 0.106042813 4     0.107758828
    ##  7      485 0.106042813 6     0.107281321
    ##  8      485 0.106042813 8     0.106181816
    ##  9      486 0.109161071 2     0.114634379
    ## 10      486 0.109161071 4     <NA>       
    ## # ℹ 38 more rows
…
